हन्ति - 44035
विदाङ्-कुर्वन्तु - 31041
इच्छति - 14028
जीवति - 44012, 52021
आनृहुः - 61036
विध्यति - 44083
तित्याज - 61036
वर्तयति - 51072
अपस्पृधेथाम् - 61036
गच्छति - 43085, 51074
सम्भवति - 51052
धिषीय - 74045
रक्षति - 44033
चिच्युषे - 61036
उञ्छति - 44032
चरति - 44008, 44041
पचति - 51052
हरति - 44015, 51050
दृश्यन्ते - 32075, 33002, 53014
अधीते - 42059, 52084
एति - 44042
तिष्ठति - 44036
तरति - 44005
व्याप्नोति - 52007
वसति - 44073
धावति - 44037
अभिप्रैति - 14032
प्रयच्छति - 44030
आवहति - 51050
प्रभवति - 43083, 51101
दृश्यते - 32101, 32178, 33130, 63137, 64073, 71076
दीव्यति - 44002
समवैति - 44043
प्राप्नोति - 52008
अन्विच्छति - 52075
जयति - 44002
पश्यति - 44046
अवहरति - 51052
वृषण्यति - 74036
अभिनिष्क्रामति - 43086
आनृचुः - 61036
स्यात् - 12055, 51016
पच्यन्ते - 51090
गृह्णाति - 44039
वर्तते - 44027
व्यवहरति - 44072
विदामक्रन् - 31042
अर्हति - 44137, 51063
आसीत् - 82102
व्याहरति - 43051
पावयांक्रियात् - 31042
ससूव - 74074
धिष्व - 74045
अस्ति - 42067, 52094
दीयते - 44066, 51047, 51096
रिषण्यति - 74036
खनति - 44002
करोति - 44034
वहति - 44076, 51050
अनुभवति - 52010
